%!PS-Adobe-3.0 EPSF-3.0
%%Creator: cairo 1.14.2 (http://cairographics.org)
%%CreationDate: Fri Mar 18 14:34:45 2016
%%Pages: 1
%%DocumentData: Clean7Bit
%%LanguageLevel: 2
%%BoundingBox: 0 -1 371 371
%%EndComments
%%BeginProlog
save
50 dict begin
/q { gsave } bind def
/Q { grestore } bind def
/cm { 6 array astore concat } bind def
/w { setlinewidth } bind def
/J { setlinecap } bind def
/j { setlinejoin } bind def
/M { setmiterlimit } bind def
/d { setdash } bind def
/m { moveto } bind def
/l { lineto } bind def
/c { curveto } bind def
/h { closepath } bind def
/re { exch dup neg 3 1 roll 5 3 roll moveto 0 rlineto
      0 exch rlineto 0 rlineto closepath } bind def
/S { stroke } bind def
/f { fill } bind def
/f* { eofill } bind def
/n { newpath } bind def
/W { clip } bind def
/W* { eoclip } bind def
/BT { } bind def
/ET { } bind def
/pdfmark where { pop globaldict /?pdfmark /exec load put }
    { globaldict begin /?pdfmark /pop load def /pdfmark
    /cleartomark load def end } ifelse
/BDC { mark 3 1 roll /BDC pdfmark } bind def
/EMC { mark /EMC pdfmark } bind def
/cairo_store_point { /cairo_point_y exch def /cairo_point_x exch def } def
/Tj { show currentpoint cairo_store_point } bind def
/TJ {
  {
    dup
    type /stringtype eq
    { show } { -0.001 mul 0 cairo_font_matrix dtransform rmoveto } ifelse
  } forall
  currentpoint cairo_store_point
} bind def
/cairo_selectfont { cairo_font_matrix aload pop pop pop 0 0 6 array astore
    cairo_font exch selectfont cairo_point_x cairo_point_y moveto } bind def
/Tf { pop /cairo_font exch def /cairo_font_matrix where
      { pop cairo_selectfont } if } bind def
/Td { matrix translate cairo_font_matrix matrix concatmatrix dup
      /cairo_font_matrix exch def dup 4 get exch 5 get cairo_store_point
      /cairo_font where { pop cairo_selectfont } if } bind def
/Tm { 2 copy 8 2 roll 6 array astore /cairo_font_matrix exch def
      cairo_store_point /cairo_font where { pop cairo_selectfont } if } bind def
/g { setgray } bind def
/rg { setrgbcolor } bind def
/d1 { setcachedevice } bind def
%%EndProlog
%%BeginSetup
%%EndSetup
%%Page: 1 1
%%BeginPageSetup
%%PageBoundingBox: 0 -1 371 371
%%EndPageSetup
q 0 -1 371 372 rectclip q
0 g
358 165.599 m 300 165.599 l 300 200.869 l 351.223 229.326 l 355.156 231.509
 357.602 235.666 357.602 240.166 c 357.602 257.525 l 357.602 261.962 355.316
 265.959 351.488 268.209 c 350.953 268.525 350.398 268.795 349.836 269.021
 c 328.266 337.646 l 325.848 345.334 319.84 351.443 312.191 353.994 c 263.898
 370.091 l 263.883 370.095 263.871 370.099 263.859 370.103 c 263.73 370.146
 263.598 370.177 263.465 370.212 c 263.398 370.228 263.332 370.248 263.266
 370.263 c 263.164 370.287 263.055 370.298 262.949 370.318 c 262.852 370.334
 262.754 370.349 262.656 370.361 c 262.582 370.369 262.508 370.373 262.434
 370.377 c 262.301 370.388 262.172 370.396 262.039 370.396 c 262.027 370.4
 262.016 370.4 262 370.4 c 242.414 370.4 l 236.086 370.4 230.809 365.712
 230.137 359.494 c 227.66 336.521 208.344 319.201 185.199 319.201 c 162.059
 319.201 142.738 336.521 140.262 359.494 c 139.59 365.712 134.312 370.4 
127.988 370.4 c 108.398 370.4 l 108.387 370.4 108.371 370.4 108.359 370.396
 c 108.227 370.396 108.098 370.388 107.965 370.377 c 107.891 370.373 107.816
 370.369 107.742 370.361 c 107.645 370.349 107.547 370.334 107.449 370.318
 c 107.344 370.298 107.238 370.287 107.133 370.263 c 107.066 370.248 107
 370.228 106.934 370.212 c 106.801 370.177 106.668 370.142 106.539 370.103
 c 106.527 370.099 106.516 370.095 106.5 370.091 c 58.207 353.994 l 50.562
 351.443 44.555 345.334 42.137 337.642 c 20.562 269.021 l 20 268.795 19.445
 268.525 18.91 268.209 c 15.086 265.959 12.801 261.962 12.801 257.525 c 
12.801 240.166 l 12.801 235.666 15.242 231.513 19.18 229.326 c 70.398 200.869
 l 70.398 165.599 l 12.398 165.599 l 5.562 165.599 0 160.037 0 153.201 c
 0 76.4 l 0 69.564 5.562 64.002 12.398 64.002 c 70.398 64.002 l 70.398 38.002
 l 70.398 33.337 72.988 29.275 76.801 27.158 c 76.801 12.4 l 76.801 5.564
 82.363 0.002 89.199 0.002 c 281.199 0.002 l 288.039 0.002 293.602 5.564
 293.602 12.4 c 293.602 27.158 l 297.41 29.275 300 33.337 300 38.002 c 300
 64.002 l 358 64.002 l 364.836 64.002 370.398 69.564 370.398 76.4 c 370.398
 153.201 l 370.398 160.037 364.836 165.599 358 165.599 c h
345.602 240.166 m 345.602 240.021 345.52 239.888 345.395 239.814 c 300 
214.599 l 300 232.869 l 344.867 257.795 l 344.977 257.791 345.086 257.767
 345.199 257.767 c 345.297 257.767 345.398 257.787 345.5 257.791 c 345.594
 257.697 345.598 257.595 345.598 257.525 c 345.598 240.166 l h
337.723 267.556 m 300 246.599 l 300 272.81 l 300 277.63 300.887 282.357
 302.629 286.849 c 318.668 328.17 l h
127.988 358.4 m 128.191 358.4 128.328 358.263 128.332 358.209 c 131.469
 329.127 155.914 307.201 185.199 307.201 c 214.488 307.201 238.934 329.127
 242.07 358.205 c 242.074 358.263 242.211 358.4 242.414 358.4 c 255.75 358.4
 l 252.695 322.158 222.219 293.599 185.199 293.599 c 148.18 293.599 117.707
 322.158 114.652 358.4 c h
51.734 328.17 m 67.773 286.849 l 69.516 282.357 70.402 277.63 70.402 272.81
 c 70.402 246.599 l 32.68 267.552 l h
25.008 239.818 m 24.879 239.888 24.801 240.021 24.801 240.166 c 24.801 
257.525 l 24.801 257.595 24.805 257.697 24.902 257.795 c 25 257.787 25.102
 257.771 25.203 257.771 c 25.312 257.771 25.422 257.791 25.531 257.795 c
 70.402 232.869 l 70.402 214.599 l h
82.402 204.322 m 82.402 272.81 l 82.402 279.123 81.242 285.306 78.961 291.193
 c 59.461 341.431 l 60.258 341.904 61.105 342.31 62 342.607 c 102.805 356.209
 l 106.93 314.384 142.309 281.599 185.199 281.599 c 228.094 281.599 263.469
 314.384 267.598 356.209 c 308.398 342.611 l 309.297 342.31 310.141 341.904
 310.941 341.431 c 291.441 291.193 l 289.16 285.306 288 279.123 288 272.81
 c 288 165.599 l 82.402 165.599 l h
281.199 12.002 m 89.199 12.002 l 88.98 12.002 88.801 12.181 88.801 12.4
 c 88.801 25.599 l 281.602 25.599 l 281.602 12.4 l 281.602 12.181 281.422
 12.002 281.199 12.002 c h
288 38.002 m 288 37.779 287.82 37.599 287.602 37.599 c 82.801 37.599 l 
82.582 37.599 82.402 37.779 82.402 38.002 c 82.402 64.002 l 288 64.002 l
 h
358.402 76.4 m 358.402 76.181 358.223 76.002 358 76.002 c 12.402 76.002
 l 12.18 76.002 12 76.181 12 76.4 c 12 153.201 l 12 153.42 12.18 153.599
 12.402 153.599 c 51.199 153.599 l 51.199 140.4 l 51.199 137.087 53.887 
134.4 57.199 134.4 c 60.516 134.4 63.199 137.087 63.199 140.4 c 63.199 153.599
 l 83.199 153.599 l 83.199 127.599 l 83.199 124.287 85.887 121.599 89.199
 121.599 c 92.516 121.599 95.199 124.287 95.199 127.599 c 95.199 153.599
 l 115.199 153.599 l 115.199 140.4 l 115.199 137.087 117.887 134.4 121.199
 134.4 c 124.516 134.4 127.199 137.087 127.199 140.4 c 127.199 153.599 l
 147.199 153.599 l 147.199 140.4 l 147.199 137.087 149.887 134.4 153.199
 134.4 c 156.516 134.4 159.199 137.087 159.199 140.4 c 159.199 153.599 l
 179.199 153.599 l 179.199 127.599 l 179.199 124.287 181.887 121.599 185.199
 121.599 c 188.516 121.599 191.199 124.287 191.199 127.599 c 191.199 153.599
 l 211.199 153.599 l 211.199 140.4 l 211.199 137.087 213.887 134.4 217.199
 134.4 c 220.516 134.4 223.199 137.087 223.199 140.4 c 223.199 153.599 l
 243.199 153.599 l 243.199 140.4 l 243.199 137.087 245.887 134.4 249.199
 134.4 c 252.516 134.4 255.199 137.087 255.199 140.4 c 255.199 153.599 l
 275.199 153.599 l 275.199 127.599 l 275.199 124.287 277.887 121.599 281.199
 121.599 c 284.516 121.599 287.199 124.287 287.199 127.599 c 287.199 153.599
 l 307.199 153.599 l 307.199 140.4 l 307.199 137.087 309.887 134.4 313.199
 134.4 c 316.516 134.4 319.199 137.087 319.199 140.4 c 319.199 153.599 l
 358 153.599 l 358.223 153.599 358.402 153.42 358.402 153.201 c h
358.402 76.4 m f
Q Q
showpage
%%Trailer
end restore
%%EOF
