%!PS-Adobe-3.0 EPSF-3.0
%%Creator: cairo 1.14.2 (http://cairographics.org)
%%CreationDate: Wed May 18 10:40:35 2016
%%Pages: 1
%%DocumentData: Clean7Bit
%%LanguageLevel: 2
%%BoundingBox: 0 -1 408 308
%%EndComments
%%BeginProlog
save
50 dict begin
/q { gsave } bind def
/Q { grestore } bind def
/cm { 6 array astore concat } bind def
/w { setlinewidth } bind def
/J { setlinecap } bind def
/j { setlinejoin } bind def
/M { setmiterlimit } bind def
/d { setdash } bind def
/m { moveto } bind def
/l { lineto } bind def
/c { curveto } bind def
/h { closepath } bind def
/re { exch dup neg 3 1 roll 5 3 roll moveto 0 rlineto
      0 exch rlineto 0 rlineto closepath } bind def
/S { stroke } bind def
/f { fill } bind def
/f* { eofill } bind def
/n { newpath } bind def
/W { clip } bind def
/W* { eoclip } bind def
/BT { } bind def
/ET { } bind def
/pdfmark where { pop globaldict /?pdfmark /exec load put }
    { globaldict begin /?pdfmark /pop load def /pdfmark
    /cleartomark load def end } ifelse
/BDC { mark 3 1 roll /BDC pdfmark } bind def
/EMC { mark /EMC pdfmark } bind def
/cairo_store_point { /cairo_point_y exch def /cairo_point_x exch def } def
/Tj { show currentpoint cairo_store_point } bind def
/TJ {
  {
    dup
    type /stringtype eq
    { show } { -0.001 mul 0 cairo_font_matrix dtransform rmoveto } ifelse
  } forall
  currentpoint cairo_store_point
} bind def
/cairo_selectfont { cairo_font_matrix aload pop pop pop 0 0 6 array astore
    cairo_font exch selectfont cairo_point_x cairo_point_y moveto } bind def
/Tf { pop /cairo_font exch def /cairo_font_matrix where
      { pop cairo_selectfont } if } bind def
/Td { matrix translate cairo_font_matrix matrix concatmatrix dup
      /cairo_font_matrix exch def dup 4 get exch 5 get cairo_store_point
      /cairo_font where { pop cairo_selectfont } if } bind def
/Tm { 2 copy 8 2 roll 6 array astore /cairo_font_matrix exch def
      cairo_store_point /cairo_font where { pop cairo_selectfont } if } bind def
/g { setgray } bind def
/rg { setrgbcolor } bind def
/d1 { setcachedevice } bind def
%%EndProlog
%%BeginSetup
%%EndSetup
%%Page: 1 1
%%BeginPageSetup
%%PageBoundingBox: 0 -1 408 308
%%EndPageSetup
q 0 -1 408 309 rectclip q
0.721569 0.729412 0.752941 rg
203.598 185.614 m 200.062 185.614 197.199 188.473 197.199 192.012 c 197.199
 218.114 l 197.199 224.411 201.922 229.837 208.184 230.735 c 216.867 231.981
 224.754 236.844 229.824 244.075 c 234.953 251.387 236.746 260.376 234.875
 269.368 c 232.359 281.407 222.59 291.172 210.555 293.688 c 200.844 295.692
 190.949 293.372 183.43 287.255 c 175.91 281.141 171.598 272.087 171.598
 262.411 c 171.598 258.872 168.738 256.012 165.199 256.012 c 161.66 256.012
 158.801 258.872 158.801 262.411 c 158.801 275.962 164.836 288.637 175.355
 297.192 c 185.867 305.735 199.648 309.036 213.168 306.212 c 230.113 302.68
 243.867 288.922 247.398 271.981 c 250.004 259.485 247.484 246.965 240.305
 236.723 c 233.219 226.61 222.176 219.813 210.004 218.063 c 210 192.012 
l 210 188.473 207.137 185.614 203.598 185.614 c h
203.598 185.614 m f
0.360784 0.329412 0.415686 rg
399.555 55.77 m 209.055 187.106 l 205.766 189.368 201.438 189.364 198.148
 187.098 c 7.887 55.692 l 1.273 51.13 -1.559 42.88 0.848 35.161 c 3.215 
27.559 10.102 22.442 18 22.407 c 18 19.2 l 18 8.614 26.609 0.001 37.199 
0.001 c 69.199 0.001 l 72.734 0.001 75.598 2.864 75.598 6.399 c 75.598 9.938
 72.734 12.801 69.199 12.801 c 37.199 12.801 l 33.668 12.801 30.797 15.669
 30.797 19.2 c 30.797 22.399 l 376.398 22.399 l 376.398 19.2 l 376.398 15.669
 373.531 12.801 370 12.801 c 338 12.801 l 334.461 12.801 331.598 9.938 331.598
 6.399 c 331.598 2.864 334.461 0.001 338 0.001 c 370 0.001 l 380.586 0.001
 389.199 8.614 389.199 19.2 c 389.199 22.399 l 389.453 22.399 l 397.438 
22.399 404.371 27.575 406.715 35.274 c 409.09 43.063 406.172 51.325 399.555
 55.77 c h
203.609 167.536 m 386.273 41.598 l 21.262 41.598 l h
203.609 167.536 m f
0.541176 0.533333 0.584314 rg
210 217.598 m 197.199 217.598 l 193.664 217.598 190.797 214.735 190.797
 211.2 c 190.797 187.2 l 190.797 183.665 193.664 180.801 197.199 180.801
 c 210 180.801 l 213.531 180.801 216.398 183.665 216.398 187.2 c 216.398
 211.2 l 216.398 214.735 213.531 217.598 210 217.598 c h
210 217.598 m f
Q Q
showpage
%%Trailer
end restore
%%EOF
