%!PS-Adobe-3.0 EPSF-3.0
%%Creator: cairo 1.10.2 (http://cairographics.org)
%%CreationDate: Fri Jul  4 09:08:52 2014
%%Pages: 1
%%BoundingBox: 0 -1 43 43
%%DocumentData: Clean7Bit
%%LanguageLevel: 2
%%EndComments
%%BeginProlog
/cairo_eps_state save def
/dict_count countdictstack def
/op_count count 1 sub def
userdict begin
/q { gsave } bind def
/Q { grestore } bind def
/cm { 6 array astore concat } bind def
/w { setlinewidth } bind def
/J { setlinecap } bind def
/j { setlinejoin } bind def
/M { setmiterlimit } bind def
/d { setdash } bind def
/m { moveto } bind def
/l { lineto } bind def
/c { curveto } bind def
/h { closepath } bind def
/re { exch dup neg 3 1 roll 5 3 roll moveto 0 rlineto
      0 exch rlineto 0 rlineto closepath } bind def
/S { stroke } bind def
/f { fill } bind def
/f* { eofill } bind def
/n { newpath } bind def
/W { clip } bind def
/W* { eoclip } bind def
/BT { } bind def
/ET { } bind def
/pdfmark where { pop globaldict /?pdfmark /exec load put }
    { globaldict begin /?pdfmark /pop load def /pdfmark
    /cleartomark load def end } ifelse
/BDC { mark 3 1 roll /BDC pdfmark } bind def
/EMC { mark /EMC pdfmark } bind def
/cairo_store_point { /cairo_point_y exch def /cairo_point_x exch def } def
/Tj { show currentpoint cairo_store_point } bind def
/TJ {
  {
    dup
    type /stringtype eq
    { show } { -0.001 mul 0 cairo_font_matrix dtransform rmoveto } ifelse
  } forall
  currentpoint cairo_store_point
} bind def
/cairo_selectfont { cairo_font_matrix aload pop pop pop 0 0 6 array astore
    cairo_font exch selectfont cairo_point_x cairo_point_y moveto } bind def
/Tf { pop /cairo_font exch def /cairo_font_matrix where
      { pop cairo_selectfont } if } bind def
/Td { matrix translate cairo_font_matrix matrix concatmatrix dup
      /cairo_font_matrix exch def dup 4 get exch 5 get cairo_store_point
      /cairo_font where { pop cairo_selectfont } if } bind def
/Tm { 2 copy 8 2 roll 6 array astore /cairo_font_matrix exch def
      cairo_store_point /cairo_font where { pop cairo_selectfont } if } bind def
/g { setgray } bind def
/rg { setrgbcolor } bind def
/d1 { setcachedevice } bind def
%%EndProlog
%%Page: 1 1
%%BeginPageSetup
%%PageBoundingBox: 0 -1 43 43
%%EndPageSetup
q 0 -1 43 44 rectclip q
0 42.502 43 -43 re W n
0 g
21.25 42.502 m 9.52 42.502 0 32.995 0 21.264 c 0 9.518 9.52 -0.002 
21.25 -0.002 c 32.992 -0.002 42.5 9.518 42.5 21.264 c 42.5 32.995 
32.992 42.502 21.25 42.502 c h
22.766 9.436 m 22.273 8.998 21.699 8.776 21.051 8.776 c 20.383 8.776 
19.797 8.995 19.297 9.428 c 18.797 9.862 18.547 10.471 18.547 11.248 c 
18.547 11.94 18.789 12.526 19.273 12.995 c 19.758 13.467 20.348 13.706 
21.051 13.706 c 21.742 13.706 22.328 13.467 22.801 12.995 c 23.27 
12.526 23.508 11.94 23.508 11.248 c 23.508 10.479 23.262 9.877 22.766 
9.436 c h
28.922 24.694 m 28.539 23.991 28.09 23.385 27.566 22.873 c 27.047 
22.362 26.109 21.502 24.758 20.295 c 24.387 19.956 24.086 19.655 23.859 
19.397 c 23.637 19.139 23.469 18.905 23.359 18.69 c 23.246 18.475 
23.164 18.26 23.102 18.045 c 23.043 17.834 22.953 17.456 22.832 16.916 
c 22.621 15.776 21.969 15.206 20.871 15.206 c 20.301 15.206 19.82 
15.389 19.43 15.764 c 19.039 16.139 18.844 16.694 18.844 17.428 c 
18.844 18.35 18.988 19.151 19.273 19.827 c 19.559 20.502 19.938 21.096 
20.41 21.604 c 20.883 22.116 21.52 22.725 22.32 23.428 c 23.023 24.041 
23.531 24.506 23.844 24.819 c 24.16 25.131 24.422 25.479 24.637 25.866 
c 24.852 26.248 24.957 26.666 24.957 27.116 c 24.957 27.995 24.629 
28.737 23.977 29.342 c 23.324 29.944 22.48 30.248 21.445 30.248 c 
20.238 30.248 19.348 29.944 18.777 29.334 c 18.207 28.725 17.723 27.827 
17.328 26.639 c 16.953 25.397 16.242 24.776 15.203 24.776 c 14.586 
24.776 14.066 24.995 13.645 25.428 c 13.223 25.862 13.012 26.331 13.012 
26.834 c 13.012 27.877 13.344 28.936 14.016 30.006 c 14.688 31.081 
15.664 31.967 16.949 32.67 c 18.234 33.373 19.734 33.725 21.445 33.725 
c 23.039 33.725 24.445 33.428 25.664 32.842 c 26.883 32.256 27.824 
31.456 28.492 30.444 c 29.156 29.432 29.488 28.334 29.488 27.147 c 
29.488 26.217 29.301 25.397 28.922 24.694 c h
28.922 24.694 m f
Q Q
showpage
%%Trailer
count op_count sub {pop} repeat
countdictstack dict_count sub {end} repeat
cairo_eps_state restore
%%EOF
